{
  "LuaSnip": { "branch": "master", "commit": "03c8e67eb7293c404845b3982db895d59c0d1538" },
  "blamer.nvim": { "branch": "master", "commit": "e0d43c11697300eb68f00d69df8b87deb0bf52dc" },
  "ccc.nvim": { "branch": "main", "commit": "f388f1981d222967c741fe9927edf9ba5fa3bcbe" },
  "close-buffers.nvim": { "branch": "master", "commit": "3acbcad1211572342632a6c0151f839e7dead27f" },
  "cmp-buffer": { "branch": "main", "commit": "3022dbc9166796b644a841a02de8dd1cc1d311fa" },
  "cmp-nvim-lsp": { "branch": "main", "commit": "5af77f54de1b16c34b23cba810150689a3a90312" },
  "cmp-nvim-lua": { "branch": "main", "commit": "f12408bdb54c39c23e67cab726264c10db33ada8" },
  "cmp-path": { "branch": "main", "commit": "91ff86cd9c29299a64f968ebb45846c485725f23" },
  "cmp_luasnip": { "branch": "master", "commit": "05a9ab28b53f71d1aece421ef32fee2cb857a843" },
  "conform.nvim": { "branch": "master", "commit": "59d0dd233a2cafacfa1235ab22054c4d80a72319" },
  "dashboard-nvim": { "branch": "master", "commit": "a0a78099658c7d4be3714f657b18ca8285d5d106" },
  "fidget.nvim": { "branch": "main", "commit": "0ba1e16d07627532b6cae915cc992ecac249fb97" },
  "friendly-snippets": { "branch": "main", "commit": "3e9a3f5a0cfcef1741e352c37bda4e82e5eb846a" },
  "gitsigns.nvim": { "branch": "main", "commit": "805610a9393fa231f2c2b49cb521bfa413fadb3d" },
  "harpoon": { "branch": "master", "commit": "ccae1b9bec717ae284906b0bf83d720e59d12b91" },
  "hop.nvim": { "branch": "master", "commit": "1a1eceafe54b5081eae4cb91c723abd1d450f34b" },
  "lazy.nvim": { "branch": "main", "commit": "e44636a43376e8a1e851958f7e9cbe996751d59f" },
  "lsp-zero.nvim": { "branch": "v2.x", "commit": "9a686513eaaa13d737d0fec8956a18268ead8b29" },
  "lualine.nvim": { "branch": "master", "commit": "0a5a66803c7407767b799067986b4dc3036e1983" },
  "mason-lspconfig.nvim": { "branch": "main", "commit": "9ae570e206360e47d30b4c35a4550c165f4ea7b7" },
  "mason.nvim": { "branch": "main", "commit": "49ff59aded1047a773670651cfa40e76e63c6377" },
  "neo-tree.nvim": { "branch": "v3.x", "commit": "7aad1bf3f6b849cbf108e02c55ad4d701cb4d33a" },
  "neoclip": { "branch": "master", "commit": "1b3c450ac79b5fc3fcfad788b1d075a11554e1df" },
  "nightfox.nvim": { "branch": "main", "commit": "df75a6a94910ae47854341d6b5a6fd483192c0eb" },
  "noice.nvim": { "branch": "main", "commit": "61947de3d5904375ea94e0c13db2537488ad9829" },
  "nui.nvim": { "branch": "main", "commit": "a3597dc88b53489d3fddbddbbd13787355253bb0" },
  "nvim-autopairs": { "branch": "master", "commit": "14e97371b2aab6ee70054c1070a123dfaa3e217e" },
  "nvim-cmp": { "branch": "main", "commit": "24122371810089d390847d8ba66325c1f1aa64c0" },
  "nvim-lspconfig": { "branch": "master", "commit": "a27179f56c6f98a4cdcc79ee2971b514815a4940" },
  "nvim-notify": { "branch": "master", "commit": "5371f4bfc1f6d3adf4fe9d62cd3a9d44356bfd15" },
  "nvim-treesitter": { "branch": "master", "commit": "aa0c7dd29631ee8c2df738d99bd33b762b3a6e22" },
  "nvim-ts-autotag": { "branch": "main", "commit": "531f48334c422222aebc888fd36e7d109cb354cd" },
  "nvim-ts-context-commentstring": { "branch": "main", "commit": "0bdccb9c67a42a5e2d99384dc9bfa29b1451528f" },
  "nvim-ts-rainbow": { "branch": "master", "commit": "ef95c15a935f97c65a80e48e12fe72d49aacf9b9" },
  "nvim-web-devicons": { "branch": "master", "commit": "e37bb1feee9e7320c76050a55443fa843b4b6f83" },
  "plenary.nvim": { "branch": "master", "commit": "08e301982b9a057110ede7a735dd1b5285eb341f" },
  "project_nvim": { "branch": "main", "commit": "8c6bad7d22eef1b71144b401c9f74ed01526a4fb" },
  "scrollEOF.nvim": { "branch": "master", "commit": "38fd5880021e90c15dc61fa325f714bd8077f0a6" },
  "sqlite.lua": { "branch": "master", "commit": "d0ffd703b56d090d213b497ed4eb840495f14a11" },
  "ssr.nvim": { "branch": "main", "commit": "bb323ba621ac647b4ac5638b47666e3ef3c279e1" },
  "telescope-file-browser.nvim": { "branch": "master", "commit": "4d5fd21bae12ee6e9a79232e1c377f43c419d0c5" },
  "telescope-frecency.nvim": { "branch": "master", "commit": "6b6565e6584c86ca501bdac485cbdc2ca64556e4" },
  "telescope-fzy-native.nvim": { "branch": "master", "commit": "282f069504515eec762ab6d6c89903377252bf5b" },
  "telescope-ui-select.nvim": { "branch": "master", "commit": "6e51d7da30bd139a6950adf2a47fda6df9fa06d2" },
  "telescope.nvim": { "branch": "master", "commit": "6f6bb8065567b56c42e283b06e8a1c670c0092a1" },
  "todo-comments.nvim": { "branch": "main", "commit": "a7e39ae9e74f2c8c6dc4eea6d40c3971ae84752d" },
  "toggleterm.nvim": { "branch": "main", "commit": "066cccf48a43553a80a210eb3be89a15d789d6e6" },
  "twilight.nvim": { "branch": "main", "commit": "8b7b50c0cb2dc781b2f4262a5ddd57571556d1e4" },
  "undotree": { "branch": "main", "commit": "eab459ab87dd249617b5f7187bb69e614a083047" },
  "vim-commentary": { "branch": "master", "commit": "c4b8f52cbb7142ec239494e5a2c4a512f92c4d07" },
  "vim-move": { "branch": "master", "commit": "3c4195de0748da9bba25c54d78d959d349e93c55" },
  "vim-visual-multi": { "branch": "master", "commit": "b84a6d42c1c10678928b0bf8327f378c8bc8af5a" },
  "which-key.nvim": { "branch": "main", "commit": "4433e5ec9a507e5097571ed55c02ea9658fb268a" },
  "window-picker": { "branch": "main", "commit": "41cfaa428577c53552200a404ae9b3a0b5719706" },
  "zen-mode.nvim": { "branch": "main", "commit": "78557d972b4bfbb7488e17b5703d25164ae64e6a" }
}